
{Ccom}      { 
		char* subs=strpbrk(yytext,"\n");
		int start=0;
		char t[1000];
		while(subs != NULL){
			int len =subs-(yytext+start)+1;
			strncpy(t,yytext+start,len-1);
			t[len-1]='\0';
			printf("%-8s",t);
			printf("%-8s \t %s\n","\n", "C Comment");
			line_num++;
			comment_num++;
			start+=len;
			subs=strpbrk(yytext+start,"\n");
		}
		printf("%-8s \t %s\n",yytext+start,"C Comment");
		comment_num++;
	    }
{CcomE}     {printf("%-8s \t %s\n",yytext,"C END");}
